{
    "key": "group_5ff97c8c52e1a",
    "title": "Sitemap",
    "fields": [
        {
            "key": "field_5ff97c97b5864",
            "label": "Sitemap",
            "name": "sitemap",
            "type": "repeater",
            "instructions": "",
            "required": 0,
            "conditional_logic": 0,
            "wrapper": {
                "width": "",
                "class": "",
                "id": ""
            },
            "collapsed": "field_5ff97d9ab5865",
            "min": 0,
            "max": 0,
            "layout": "table",
            "button_label": "Add Page",
            "sub_fields": [
                {
                    "key": "field_5ff97d9ab5865",
                    "label": "Parent Page",
                    "name": "parent_page",
                    "type": "link",
                    "instructions": "",
                    "required": 1,
                    "conditional_logic": 0,
                    "wrapper": {
                        "width": "30",
                        "class": "",
                        "id": ""
                    },
                    "return_format": "array"
                },
                {
                    "key": "field_5ff97ddbb5866",
                    "label": "Child Pages",
                    "name": "child_pages",
                    "type": "repeater",
                    "instructions": "",
                    "required": 0,
                    "conditional_logic": 0,
                    "wrapper": {
                        "width": "70",
                        "class": "",
                        "id": ""
                    },
                    "collapsed": "field_5ff97e3db5867",
                    "min": 0,
                    "max": 0,
                    "layout": "block",
                    "button_label": "Add subpage",
                    "sub_fields": [
                        {
                            "key": "field_5ff97e3db5867",
                            "label": "Sub Page",
                            "name": "sub_page",
                            "type": "link",
                            "instructions": "",
                            "required": 1,
                            "conditional_logic": 0,
                            "wrapper": {
                                "width": "",
                                "class": "",
                                "id": ""
                            },
                            "return_format": "array"
                        }
                    ]
                }
            ]
        }
    ],
    "location": [
        [
            {
                "param": "page",
                "operator": "==",
                "value": "34"
            }
        ]
    ],
    "menu_order": 0,
    "position": "normal",
    "style": "default",
    "label_placement": "left",
    "instruction_placement": "label",
    "hide_on_screen": [
        "the_content",
        "excerpt",
        "discussion",
        "comments",
        "revisions",
        "author",
        "format",
        "featured_image",
        "categories",
        "tags"
    ],
    "active": true,
    "description": "",
    "modified": 1613828503
}